…
``` r
tweets %>%
  group_by(location) %>%
  summarize(location_tweet_count = n())
```

    ## # A tibble: 102 × 2
    ##    location                     location_tweet_count
    ##    <fct>                                       <int>
    ##  1 Albuquerque, NM                                 1
    ##  2 Amherst, MA                                     2
    ##  3 andrew.tran@washpost.com                        1
    ##  4 Arlington Heights, IL                           1
    ##  5 Arvada, CO                                      1
    ##  6 At the home office                              2
    ##  7 Baltimore, MD                                   2
    ##  8 Basingstoke, England                            2
    ##  9 Belgrade, Republic of Serbia                    1
    ## 10 Boston, MA                                      3
    ## # … with 92 more rows
…
